"class","ntm","ckdit","cknc","ckcbo","cklcm","ckrfc","ckwmc","CLmcacc","CLmcmcc","nmc","nmt","nmm","nmpm","nma","fiic","ddc","chlvc","mci","mce","emc","CLhpd","CLhpv","CLhic","CLhme","version","yearrelease","yearpatch","file","filetype","locationnew","level1","level2","level3","level4","level5","level6","Hslf","Hslsc","Hsns","Hslc","Hcr","Hmctcc","Hmcacc","Hmcmcc","Hsb","Hndf","Hnff","Hnvf","Hidif","Hmi","Hitif","Hitil","Hifwti","Hifwdi","Hhpd","Hhpv","Hhic","Hhme","Ifile","Ilocationnew","Iversion","Islf","Islsc","Isns","Islc","Icr","Imctcc","Imcacc","Imcmcc","Isb","Indf","Inff","Invf","Iidif","Imi","Iitif","Iitil","Iifwti","Iifwdi","Ihpd","Ihpv","Ihic","Ihme"
"G4GDMLReadStructure",27,6,0,17,189,119,174,7.57,24,0,0,23,0,4,1,0,251,38,29,46,372,37886,92,14093592,1004,"06-Dec-13","06-Mar-15","G4GDMLReadStructure.hh","Header","persistency/gdml/include/G4GDMLReadStructure.hh","persistency","gdml","include","Empty","Empty","Empty",106,52,66,38,0.73,NA,NA,NA,4238,3,0,0,3,NA,79,5385,4,2,0,0,0,0,"G4GDMLReadStructure.cc","persistency/gdml/src",1004,927,769,554,40,0.05,174,7.57,24,30754,0,23,0,13,71,107,7452,0,0,372,37886,92,14093592
"G4GDMLWriteStructure",17,6,0,16,64,109,57,4.38,16,0,0,13,0,4,1,0,125,29,35,51,171,17846,101,3051666,1004,"06-Dec-13","06-Mar-15","G4GDMLWriteStructure.hh","Header","persistency/gdml/include/G4GDMLWriteStructure.hh","persistency","gdml","include","Empty","Empty","Empty",92,39,47,38,0.97,NA,NA,NA,3630,7,0,0,3,NA,17,906,4,2,0,0,0,0,"G4GDMLWriteStructure.cc","persistency/gdml/src",1004,511,401,281,57,0.14,57,4.38,16,19084,0,13,0,12,73,80,5215,0,0,171,17846,101,3051666
